INDEX VERSION 1.130+C:\fsd57\AdvJava\Workspace3\StudentWebApp\.metadata\.plugins\org.eclipse.jdt.core
3644761064.index
549707343.index
4170556876.index
103378668.index
895354549.index
2066830214.index
211159653.index
2162028396.index
4259073463.index
198704428.index
3539089745.index
1447128654.index
2231046391.index
881164030.index
119350597.index
643554431.index
810102472.index
3351398275.index
2885606711.index
3699107105.index
2205283528.index
674573568.index
4238787983.index
3141147615.index
2820114661.index
2507423472.index
448898489.index
1961815414.index
1130495698.index
3954194591.index
1048672308.index
3752548950.index
4138326577.index
3040837599.index
1523957327.index
3665790671.index
4037180171.index
3348520720.index
542153213.index
3890135750.index
446428819.index
1738362709.index
2025006476.index
411227453.index
1946725198.index
3785667038.index
1956904976.index
4135958314.index
